<?xml version="1.0" encoding="UTF-8" standalone="no"?>
<!-- Created with Inkscape (http://www.inkscape.org/) -->

<svg
   xmlns:dc="http://purl.org/dc/elements/1.1/"
   xmlns:cc="http://creativecommons.org/ns#"
   xmlns:rdf="http://www.w3.org/1999/02/22-rdf-syntax-ns#"
   xmlns:svg="http://www.w3.org/2000/svg"
   xmlns="http://www.w3.org/2000/svg"
   xmlns:sodipodi="http://sodipodi.sourceforge.net/DTD/sodipodi-0.dtd"
   xmlns:inkscape="http://www.inkscape.org/namespaces/inkscape"
   width="300mm"
   height="300mm"
   viewBox="0 0 300 300"
   version="1.1"
   id="svg3320"
   inkscape:version="0.92.3 (2405546, 2018-03-11)"
   sodipodi:docname="N.svg">
  <defs
     id="defs3314" />
  <sodipodi:namedview
     id="base"
     pagecolor="#ffffff"
     bordercolor="#666666"
     borderopacity="1.0"
     inkscape:pageopacity="0.0"
     inkscape:pageshadow="2"
     inkscape:zoom="0.175"
     inkscape:cx="428.02547"
     inkscape:cy="531.97703"
     inkscape:document-units="mm"
     inkscape:current-layer="layer1"
     showgrid="false"
     inkscape:pagecheckerboard="true"
     showguides="true"
     inkscape:guide-bbox="true"
     inkscape:window-width="798"
     inkscape:window-height="838"
     inkscape:window-x="793"
     inkscape:window-y="0"
     inkscape:window-maximized="0" />
  <metadata
     id="metadata3317">
    <rdf:RDF>
      <cc:Work
         rdf:about="">
        <dc:format>image/svg+xml</dc:format>
        <dc:type
           rdf:resource="http://purl.org/dc/dcmitype/StillImage" />
        <dc:title></dc:title>
      </cc:Work>
    </rdf:RDF>
  </metadata>
  <g
     inkscape:label="Layer 1"
     inkscape:groupmode="layer"
     id="layer1"
     transform="translate(0,3)">
    <path
       style="display:inline;opacity:1;fill:none;fill-opacity:1;stroke:#000000;stroke-width:20.00022507;stroke-linecap:round;stroke-miterlimit:4;stroke-dasharray:none;stroke-opacity:1"
       id="path1417-4-1-3"
       sodipodi:type="arc"
       sodipodi:cx="100.00101"
       sodipodi:cy="286.85745"
       sodipodi:rx="89.999893"
       sodipodi:ry="89.999886"
       sodipodi:start="3.1415927"
       sodipodi:end="0"
       d="m 10.001114,286.85745 a 89.999893,89.999886 0 0 1 89.999896,-89.99988 89.999893,89.999886 0 0 1 89.99989,89.99988"
       sodipodi:open="true" />
    <path
       style="display:inline;opacity:1;fill:none;fill-opacity:1;stroke:#000000;stroke-width:20.00022507;stroke-linecap:round;stroke-miterlimit:4;stroke-dasharray:none;stroke-opacity:1"
       id="path1417-4-1-5-6"
       sodipodi:type="arc"
       sodipodi:cx="150.00101"
       sodipodi:cy="-7.142539"
       sodipodi:rx="89.999893"
       sodipodi:ry="89.999886"
       sodipodi:start="3.1415927"
       sodipodi:end="0"
       d="M 60.001114,-7.1425432 A 89.999893,89.999886 0 0 1 150.00101,-97.142425 89.999893,89.999886 0 0 1 240.0009,-7.142539"
       sodipodi:open="true"
       transform="scale(1,-1)" />
  </g>
</svg>
